## Autogenerated by Scribe. DO NOT MODIFY.

name: Leads
description: |-

  APIs voor het beheren van leads
endpoints:
  -
    custom: []
    httpMethods:
      - GET
    uri: api/leads
    metadata:
      custom: []
      groupName: Leads
      groupDescription: |-

        APIs voor het beheren van leads
      subgroup: ''
      subgroupDescription: ''
      title: 'Alle leads ophalen'
      description: 'Retourneert een gepagineerde lijst van leads. Ondersteunt zoeken, filteren op status en sorteren.'
      authenticated: true
      deprecated: false
    headers:
      Authorization: 'Bearer {YOUR_ACCESS_TOKEN}'
      Content-Type: application/json
      Accept: application/json
    urlParameters: []
    cleanUrlParameters: []
    queryParameters:
      search:
        custom: []
        name: search
        description: 'Zoek op naam of e-mail.'
        required: false
        example: jan
        type: string
        enumValues: []
        exampleWasSpecified: true
        nullable: false
        deprecated: false
      status:
        custom: []
        name: status
        description: 'Filter op status.'
        required: false
        example: nieuw
        type: string
        enumValues: []
        exampleWasSpecified: true
        nullable: false
        deprecated: false
      sort:
        custom: []
        name: sort
        description: 'Sorteerrichting (asc of desc).'
        required: false
        example: desc
        type: string
        enumValues: []
        exampleWasSpecified: true
        nullable: false
        deprecated: false
      per_page:
        custom: []
        name: per_page
        description: 'Aantal resultaten per pagina (1-100).'
        required: false
        example: 15
        type: integer
        enumValues: []
        exampleWasSpecified: true
        nullable: false
        deprecated: false
    cleanQueryParameters:
      search: jan
      status: nieuw
      sort: desc
      per_page: 15
    bodyParameters:
      search:
        custom: []
        name: search
        description: 'Must not be greater than 255 characters.'
        required: false
        example: b
        type: string
        enumValues: []
        exampleWasSpecified: false
        nullable: true
        deprecated: false
      status:
        custom: []
        name: status
        description: ''
        required: false
        example: proefrit
        type: string
        enumValues:
          - nieuw
          - opgepakt
          - proefrit
          - offerte
          - verkocht
          - afgevallen
        exampleWasSpecified: false
        nullable: true
        deprecated: false
      sort:
        custom: []
        name: sort
        description: ''
        required: false
        example: desc
        type: string
        enumValues:
          - asc
          - desc
        exampleWasSpecified: false
        nullable: true
        deprecated: false
      per_page:
        custom: []
        name: per_page
        description: 'Must be at least 1. Must not be greater than 100.'
        required: false
        example: 22
        type: integer
        enumValues: []
        exampleWasSpecified: false
        nullable: true
        deprecated: false
    cleanBodyParameters:
      search: b
      status: proefrit
      sort: desc
      per_page: 22
    fileParameters: []
    responses:
      -
        custom: []
        status: 200
        content: '{"data": [{"id": 1, "name": "Jan de Vries", "email": "jan@example.com", "source": "website", "status": "nieuw", "created_at": "2026-02-26T10:00:00.000000Z", "updated_at": "2026-02-26T10:00:00.000000Z"}], "links": {"first": "http://localhost/api/leads?page=1", "last": "http://localhost/api/leads?page=5", "prev": null, "next": "http://localhost/api/leads?page=2"}, "meta": {"current_page": 1, "last_page": 5, "per_page": 15, "total": 73}}'
        headers: []
        description: 'Succesvolle operatie'
      -
        custom: []
        status: 401
        content: '{"message": "Unauthenticated."}'
        headers: []
        description: 'Niet geauthenticeerd'
    responseFields: []
    auth:
      - headers
      - Authorization
      - 'Bearer 6g43cv8PD1aE5beadkZfhV6'
    controller: null
    method: null
    route: null
  -
    custom: []
    httpMethods:
      - POST
    uri: api/leads
    metadata:
      custom: []
      groupName: Leads
      groupDescription: |-

        APIs voor het beheren van leads
      subgroup: ''
      subgroupDescription: ''
      title: 'Nieuwe lead aanmaken'
      description: 'Maak een nieuwe lead aan met de opgegeven gegevens.'
      authenticated: true
      deprecated: false
    headers:
      Authorization: 'Bearer {YOUR_ACCESS_TOKEN}'
      Content-Type: application/json
      Accept: application/json
    urlParameters: []
    cleanUrlParameters: []
    queryParameters: []
    cleanQueryParameters: []
    bodyParameters:
      name:
        custom: []
        name: name
        description: 'De naam van de lead. Minimaal 2 karakters.'
        required: true
        example: 'Jan de Vries'
        type: string
        enumValues: []
        exampleWasSpecified: true
        nullable: false
        deprecated: false
      email:
        custom: []
        name: email
        description: 'Het e-mailadres van de lead.'
        required: true
        example: jan@example.com
        type: string
        enumValues: []
        exampleWasSpecified: true
        nullable: false
        deprecated: false
      source:
        custom: []
        name: source
        description: 'De bron van de lead. Mogelijke waarden: website, email, telefoon, whatsapp, showroom, overig.'
        required: true
        example: website
        type: string
        enumValues: []
        exampleWasSpecified: true
        nullable: false
        deprecated: false
      status:
        custom: []
        name: status
        description: 'De status van de lead. Mogelijke waarden: nieuw, opgepakt, proefrit, offerte, verkocht, afgevallen.'
        required: true
        example: nieuw
        type: string
        enumValues: []
        exampleWasSpecified: true
        nullable: false
        deprecated: false
    cleanBodyParameters:
      name: 'Jan de Vries'
      email: jan@example.com
      source: website
      status: nieuw
    fileParameters: []
    responses:
      -
        custom: []
        status: 201
        content: '{"data": {"id": 1, "name": "Jan de Vries", "email": "jan@example.com", "source": "website", "status": "nieuw", "created_at": "2026-02-26T10:00:00.000000Z", "updated_at": "2026-02-26T10:00:00.000000Z"}}'
        headers: []
        description: 'Lead succesvol aangemaakt'
      -
        custom: []
        status: 401
        content: '{"message": "Unauthenticated."}'
        headers: []
        description: 'Niet geauthenticeerd'
      -
        custom: []
        status: 422
        content: '{"message": "The given data was invalid.", "errors": {"email": ["The email has already been taken."]}}'
        headers: []
        description: Validatiefout
    responseFields: []
    auth:
      - headers
      - Authorization
      - 'Bearer 6g43cv8PD1aE5beadkZfhV6'
    controller: null
    method: null
    route: null
  -
    custom: []
    httpMethods:
      - GET
    uri: 'api/leads/{id}'
    metadata:
      custom: []
      groupName: Leads
      groupDescription: |-

        APIs voor het beheren van leads
      subgroup: ''
      subgroupDescription: ''
      title: 'Lead ophalen op ID'
      description: 'Retourneert de gegevens van een specifieke lead.'
      authenticated: true
      deprecated: false
    headers:
      Authorization: 'Bearer {YOUR_ACCESS_TOKEN}'
      Content-Type: application/json
      Accept: application/json
    urlParameters:
      id:
        custom: []
        name: id
        description: 'Het ID van de lead.'
        required: true
        example: 1
        type: integer
        enumValues: []
        exampleWasSpecified: true
        nullable: false
        deprecated: false
    cleanUrlParameters:
      id: 1
    queryParameters: []
    cleanQueryParameters: []
    bodyParameters: []
    cleanBodyParameters: []
    fileParameters: []
    responses:
      -
        custom: []
        status: 200
        content: '{"data": {"id": 1, "name": "Jan de Vries", "email": "jan@example.com", "source": "website", "status": "nieuw", "created_at": "2026-02-26T10:00:00.000000Z", "updated_at": "2026-02-26T10:00:00.000000Z"}}'
        headers: []
        description: 'Succesvolle operatie'
      -
        custom: []
        status: 401
        content: '{"message": "Unauthenticated."}'
        headers: []
        description: 'Niet geauthenticeerd'
      -
        custom: []
        status: 404
        content: '{"message": "Lead not found."}'
        headers: []
        description: 'Lead niet gevonden'
    responseFields: []
    auth:
      - headers
      - Authorization
      - 'Bearer 6g43cv8PD1aE5beadkZfhV6'
    controller: null
    method: null
    route: null
  -
    custom: []
    httpMethods:
      - PUT
      - PATCH
    uri: 'api/leads/{id}'
    metadata:
      custom: []
      groupName: Leads
      groupDescription: |-

        APIs voor het beheren van leads
      subgroup: ''
      subgroupDescription: ''
      title: 'Lead bijwerken'
      description: 'Werk een bestaande lead bij. Alle velden zijn optioneel (partial update).'
      authenticated: true
      deprecated: false
    headers:
      Authorization: 'Bearer {YOUR_ACCESS_TOKEN}'
      Content-Type: application/json
      Accept: application/json
    urlParameters:
      id:
        custom: []
        name: id
        description: 'Het ID van de lead.'
        required: true
        example: 1
        type: integer
        enumValues: []
        exampleWasSpecified: true
        nullable: false
        deprecated: false
    cleanUrlParameters:
      id: 1
    queryParameters: []
    cleanQueryParameters: []
    bodyParameters:
      name:
        custom: []
        name: name
        description: 'De naam van de lead. Minimaal 2 karakters.'
        required: false
        example: 'Piet Jansen'
        type: string
        enumValues: []
        exampleWasSpecified: true
        nullable: false
        deprecated: false
      email:
        custom: []
        name: email
        description: 'Het e-mailadres van de lead.'
        required: false
        example: piet@example.com
        type: string
        enumValues: []
        exampleWasSpecified: true
        nullable: false
        deprecated: false
      source:
        custom: []
        name: source
        description: 'De bron van de lead. Mogelijke waarden: website, email, telefoon, whatsapp, showroom, overig.'
        required: false
        example: email
        type: string
        enumValues: []
        exampleWasSpecified: true
        nullable: false
        deprecated: false
      status:
        custom: []
        name: status
        description: 'De status van de lead. Mogelijke waarden: nieuw, opgepakt, proefrit, offerte, verkocht, afgevallen.'
        required: false
        example: opgepakt
        type: string
        enumValues: []
        exampleWasSpecified: true
        nullable: false
        deprecated: false
    cleanBodyParameters:
      name: 'Piet Jansen'
      email: piet@example.com
      source: email
      status: opgepakt
    fileParameters: []
    responses:
      -
        custom: []
        status: 200
        content: '{"data": {"id": 1, "name": "Piet Jansen", "email": "piet@example.com", "source": "email", "status": "opgepakt", "created_at": "2026-02-26T10:00:00.000000Z", "updated_at": "2026-02-26T10:00:00.000000Z"}}'
        headers: []
        description: 'Lead succesvol bijgewerkt'
      -
        custom: []
        status: 401
        content: '{"message": "Unauthenticated."}'
        headers: []
        description: 'Niet geauthenticeerd'
      -
        custom: []
        status: 404
        content: '{"message": "Lead not found."}'
        headers: []
        description: 'Lead niet gevonden'
      -
        custom: []
        status: 422
        content: '{"message": "The given data was invalid.", "errors": {"email": ["The email has already been taken."]}}'
        headers: []
        description: Validatiefout
    responseFields: []
    auth:
      - headers
      - Authorization
      - 'Bearer 6g43cv8PD1aE5beadkZfhV6'
    controller: null
    method: null
    route: null
  -
    custom: []
    httpMethods:
      - DELETE
    uri: 'api/leads/{id}'
    metadata:
      custom: []
      groupName: Leads
      groupDescription: |-

        APIs voor het beheren van leads
      subgroup: ''
      subgroupDescription: ''
      title: 'Lead verwijderen'
      description: 'Verwijder een lead op basis van ID.'
      authenticated: true
      deprecated: false
    headers:
      Authorization: 'Bearer {YOUR_ACCESS_TOKEN}'
      Content-Type: application/json
      Accept: application/json
    urlParameters:
      id:
        custom: []
        name: id
        description: 'Het ID van de lead.'
        required: true
        example: 1
        type: integer
        enumValues: []
        exampleWasSpecified: true
        nullable: false
        deprecated: false
    cleanUrlParameters:
      id: 1
    queryParameters: []
    cleanQueryParameters: []
    bodyParameters: []
    cleanBodyParameters: []
    fileParameters: []
    responses:
      -
        custom: []
        status: 204
        content: ''
        headers: []
        description: 'Lead succesvol verwijderd'
      -
        custom: []
        status: 401
        content: '{"message": "Unauthenticated."}'
        headers: []
        description: 'Niet geauthenticeerd'
      -
        custom: []
        status: 404
        content: '{"message": "Lead not found."}'
        headers: []
        description: 'Lead niet gevonden'
    responseFields: []
    auth:
      - headers
      - Authorization
      - 'Bearer 6g43cv8PD1aE5beadkZfhV6'
    controller: null
    method: null
    route: null
